^C:\USERS\JD\DOCUMENTS\VISUAL STUDIO 2013\PROJECTS\TASK 10\TASK 10\STDAFX.CPP
D:\INSTALLED SOFTWARES\VISUAL STUDIO\VC\BIN\1033\CLUI.DLL
C:\WINDOWS\GLOBALIZATION\SORTING\SORTDEFAULT.NLS
D:\INSTALLED SOFTWARES\VISUAL STUDIO\VC\BIN\MSPDBSRV.EXE
C:\WINDOWS\SYSTEM32\TZRES.DLL
C:\USERS\JD\DOCUMENTS\VISUAL STUDIO 2013\PROJECTS\TASK 10\TASK 10\STDAFX.H
C:\USERS\JD\DOCUMENTS\VISUAL STUDIO 2013\PROJECTS\TASK 10\TASK 10\TARGETVER.H
C:\PROGRAM FILES (X86)\WINDOWS KITS\8.1\INCLUDE\SHARED\SDKDDKVER.H
D:\INSTALLED SOFTWARES\VISUAL STUDIO\VC\INCLUDE\STDIO.H
D:\INSTALLED SOFTWARES\VISUAL STUDIO\VC\INCLUDE\CRTDEFS.H
D:\INSTALLED SOFTWARES\VISUAL STUDIO\VC\INCLUDE\SAL.H
D:\INSTALLED SOFTWARES\VISUAL STUDIO\VC\INCLUDE\CONCURRENCYSAL.H
D:\INSTALLED SOFTWARES\VISUAL STUDIO\VC\INCLUDE\VADEFS.H
D:\INSTALLED SOFTWARES\VISUAL STUDIO\VC\INCLUDE\SWPRINTF.INL
D:\INSTALLED SOFTWARES\VISUAL STUDIO\VC\INCLUDE\TCHAR.H
D:\INSTALLED SOFTWARES\VISUAL STUDIO\VC\INCLUDE\WCHAR.H
D:\INSTALLED SOFTWARES\VISUAL STUDIO\VC\INCLUDE\WTIME.INL
^C:\USERS\JD\DOCUMENTS\VISUAL STUDIO 2013\PROJECTS\TASK 10\TASK 10\TASK 10.CPP
D:\INSTALLED SOFTWARES\VISUAL STUDIO\VC\BIN\1033\CLUI.DLL
C:\WINDOWS\GLOBALIZATION\SORTING\SORTDEFAULT.NLS
C:\WINDOWS\SYSTEM32\TZRES.DLL
C:\USERS\JD\DOCUMENTS\VISUAL STUDIO 2013\PROJECTS\TASK 10\TASK 10\DEBUG\TASK 10.PCH
D:\INSTALLED SOFTWARES\VISUAL STUDIO\VC\INCLUDE\IOSTREAM
D:\INSTALLED SOFTWARES\VISUAL STUDIO\VC\INCLUDE\ISTREAM
D:\INSTALLED SOFTWARES\VISUAL STUDIO\VC\INCLUDE\OSTREAM
D:\INSTALLED SOFTWARES\VISUAL STUDIO\VC\INCLUDE\IOS
D:\INSTALLED SOFTWARES\VISUAL STUDIO\VC\INCLUDE\XLOCNUM
D:\INSTALLED SOFTWARES\VISUAL STUDIO\VC\INCLUDE\CLIMITS
D:\INSTALLED SOFTWARES\VISUAL STUDIO\VC\INCLUDE\YVALS.H
D:\INSTALLED SOFTWARES\VISUAL STUDIO\VC\INCLUDE\XKEYCHECK.H
D:\INSTALLED SOFTWARES\VISUAL STUDIO\VC\INCLUDE\CRTDEFS.H
D:\INSTALLED SOFTWARES\VISUAL STUDIO\VC\INCLUDE\USE_ANSI.H
D:\INSTALLED SOFTWARES\VISUAL STUDIO\VC\INCLUDE\LIMITS.H
D:\INSTALLED SOFTWARES\VISUAL STUDIO\VC\INCLUDE\CMATH
D:\INSTALLED SOFTWARES\VISUAL STUDIO\VC\INCLUDE\MATH.H
D:\INSTALLED SOFTWARES\VISUAL STUDIO\VC\INCLUDE\XTGMATH.H
D:\INSTALLED SOFTWARES\VISUAL STUDIO\VC\INCLUDE\XTR1COMMON
D:\INSTALLED SOFTWARES\VISUAL STUDIO\VC\INCLUDE\CSTDIO
D:\INSTALLED SOFTWARES\VISUAL STUDIO\VC\INCLUDE\CSTDLIB
D:\INSTALLED SOFTWARES\VISUAL STUDIO\VC\INCLUDE\STDLIB.H
D:\INSTALLED SOFTWARES\VISUAL STUDIO\VC\INCLUDE\STREAMBUF
D:\INSTALLED SOFTWARES\VISUAL STUDIO\VC\INCLUDE\XIOSBASE
D:\INSTALLED SOFTWARES\VISUAL STUDIO\VC\INCLUDE\XLOCALE
D:\INSTALLED SOFTWARES\VISUAL STUDIO\VC\INCLUDE\CSTRING
D:\INSTALLED SOFTWARES\VISUAL STUDIO\VC\INCLUDE\STRING.H
D:\INSTALLED SOFTWARES\VISUAL STUDIO\VC\INCLUDE\STDEXCEPT
D:\INSTALLED SOFTWARES\VISUAL STUDIO\VC\INCLUDE\EXCEPTION
D:\INSTALLED SOFTWARES\VISUAL STUDIO\VC\INCLUDE\XSTDDEF
D:\INSTALLED SOFTWARES\VISUAL STUDIO\VC\INCLUDE\CSTDDEF
D:\INSTALLED SOFTWARES\VISUAL STUDIO\VC\INCLUDE\STDDEF.H
D:\INSTALLED SOFTWARES\VISUAL STUDIO\VC\INCLUDE\INITIALIZER_LIST
D:\INSTALLED SOFTWARES\VISUAL STUDIO\VC\INCLUDE\EH.H
D:\INSTALLED SOFTWARES\VISUAL STUDIO\VC\INCLUDE\MALLOC.H
D:\INSTALLED SOFTWARES\VISUAL STUDIO\VC\INCLUDE\XSTRING
D:\INSTALLED SOFTWARES\VISUAL STUDIO\VC\INCLUDE\XMEMORY0
D:\INSTALLED SOFTWARES\VISUAL STUDIO\VC\INCLUDE\LIMITS
D:\INSTALLED SOFTWARES\VISUAL STUDIO\VC\INCLUDE\YMATH.H
D:\INSTALLED SOFTWARES\VISUAL STUDIO\VC\INCLUDE\CFLOAT
D:\INSTALLED SOFTWARES\VISUAL STUDIO\VC\INCLUDE\FLOAT.H
D:\INSTALLED SOFTWARES\VISUAL STUDIO\VC\INCLUDE\CRTWRN.H
D:\INSTALLED SOFTWARES\VISUAL STUDIO\VC\INCLUDE\CWCHAR
D:\INSTALLED SOFTWARES\VISUAL STUDIO\VC\INCLUDE\NEW
D:\INSTALLED SOFTWARES\VISUAL STUDIO\VC\INCLUDE\XUTILITY
D:\INSTALLED SOFTWARES\VISUAL STUDIO\VC\INCLUDE\UTILITY
D:\INSTALLED SOFTWARES\VISUAL STUDIO\VC\INCLUDE\IOSFWD
D:\INSTALLED SOFTWARES\VISUAL STUDIO\VC\INCLUDE\CRTDBG.H
D:\INSTALLED SOFTWARES\VISUAL STUDIO\VC\INCLUDE\TYPE_TRAITS
D:\INSTALLED SOFTWARES\VISUAL STUDIO\VC\INCLUDE\XREFWRAP
D:\INSTALLED SOFTWARES\VISUAL STUDIO\VC\INCLUDE\XATOMIC0.H
D:\INSTALLED SOFTWARES\VISUAL STUDIO\VC\INCLUDE\INTRIN.H
D:\INSTALLED SOFTWARES\VISUAL STUDIO\VC\INCLUDE\SETJMP.H
D:\INSTALLED SOFTWARES\VISUAL STUDIO\VC\INCLUDE\IMMINTRIN.H
D:\INSTALLED SOFTWARES\VISUAL STUDIO\VC\INCLUDE\WMMINTRIN.H
D:\INSTALLED SOFTWARES\VISUAL STUDIO\VC\INCLUDE\NMMINTRIN.H
D:\INSTALLED SOFTWARES\VISUAL STUDIO\VC\INCLUDE\SMMINTRIN.H
D:\INSTALLED SOFTWARES\VISUAL STUDIO\VC\INCLUDE\TMMINTRIN.H
D:\INSTALLED SOFTWARES\VISUAL STUDIO\VC\INCLUDE\PMMINTRIN.H
D:\INSTALLED SOFTWARES\VISUAL STUDIO\VC\INCLUDE\EMMINTRIN.H
D:\INSTALLED SOFTWARES\VISUAL STUDIO\VC\INCLUDE\XMMINTRIN.H
D:\INSTALLED SOFTWARES\VISUAL STUDIO\VC\INCLUDE\MMINTRIN.H
D:\INSTALLED SOFTWARES\VISUAL STUDIO\VC\INCLUDE\AMMINTRIN.H
D:\INSTALLED SOFTWARES\VISUAL STUDIO\VC\INCLUDE\MM3DNOW.H
D:\INSTALLED SOFTWARES\VISUAL STUDIO\VC\INCLUDE\TYPEINFO
D:\INSTALLED SOFTWARES\VISUAL STUDIO\VC\INCLUDE\XLOCINFO
D:\INSTALLED SOFTWARES\VISUAL STUDIO\VC\INCLUDE\XLOCINFO.H
D:\INSTALLED SOFTWARES\VISUAL STUDIO\VC\INCLUDE\CTYPE.H
D:\INSTALLED SOFTWARES\VISUAL STUDIO\VC\INCLUDE\LOCALE.H
D:\INSTALLED SOFTWARES\VISUAL STUDIO\VC\INCLUDE\XDEBUG
D:\INSTALLED SOFTWARES\VISUAL STUDIO\VC\INCLUDE\XMEMORY
D:\INSTALLED SOFTWARES\VISUAL STUDIO\VC\INCLUDE\XFACET
D:\INSTALLED SOFTWARES\VISUAL STUDIO\VC\INCLUDE\SYSTEM_ERROR
D:\INSTALLED SOFTWARES\VISUAL STUDIO\VC\INCLUDE\CERRNO
D:\INSTALLED SOFTWARES\VISUAL STUDIO\VC\INCLUDE\ERRNO.H
D:\INSTALLED SOFTWARES\VISUAL STUDIO\VC\INCLUDE\SHARE.H
D:\INSTALLED SOFTWARES\VISUAL STUDIO\VC\INCLUDE\VECTOR
C:\PROGRAM FILES (X86)\WINDOWS KITS\8.1\INCLUDE\UM\WINDOWS.H
C:\PROGRAM FILES (X86)\WINDOWS KITS\8.1\INCLUDE\SHARED\WINAPIFAMILY.H
D:\INSTALLED SOFTWARES\VISUAL STUDIO\VC\INCLUDE\EXCPT.H
D:\INSTALLED SOFTWARES\VISUAL STUDIO\VC\INCLUDE\STDARG.H
C:\PROGRAM FILES (X86)\WINDOWS KITS\8.1\INCLUDE\SHARED\WINDEF.H
C:\PROGRAM FILES (X86)\WINDOWS KITS\8.1\INCLUDE\SHARED\MINWINDEF.H
C:\PROGRAM FILES (X86)\WINDOWS KITS\8.1\INCLUDE\SHARED\SPECSTRINGS.H
C:\PROGRAM FILES (X86)\WINDOWS KITS\8.1\INCLUDE\SHARED\SPECSTRINGS_STRICT.H
C:\PROGRAM FILES (X86)\WINDOWS KITS\8.1\INCLUDE\SHARED\SPECSTRINGS_UNDEF.H
C:\PROGRAM FILES (X86)\WINDOWS KITS\8.1\INCLUDE\SHARED\DRIVERSPECS.H
C:\PROGRAM FILES (X86)\WINDOWS KITS\8.1\INCLUDE\SHARED\SDV_DRIVERSPECS.H
C:\PROGRAM FILES (X86)\WINDOWS KITS\8.1\INCLUDE\UM\WINNT.H
C:\PROGRAM FILES (X86)\WINDOWS KITS\8.1\INCLUDE\SHARED\KERNELSPECS.H
C:\PROGRAM FILES (X86)\WINDOWS KITS\8.1\INCLUDE\SHARED\BASETSD.H
C:\PROGRAM FILES (X86)\WINDOWS KITS\8.1\INCLUDE\SHARED\GUIDDEF.H
C:\PROGRAM FILES (X86)\WINDOWS KITS\8.1\INCLUDE\SHARED\PSHPACK4.H
C:\PROGRAM FILES (X86)\WINDOWS KITS\8.1\INCLUDE\SHARED\POPPACK.H
C:\PROGRAM FILES (X86)\WINDOWS KITS\8.1\INCLUDE\SHARED\PSHPACK2.H
C:\PROGRAM FILES (X86)\WINDOWS KITS\8.1\INCLUDE\SHARED\PSHPACK8.H
C:\PROGRAM FILES (X86)\WINDOWS KITS\8.1\INCLUDE\SHARED\APISET.H
C:\PROGRAM FILES (X86)\WINDOWS KITS\8.1\INCLUDE\SHARED\KTMTYPES.H
C:\PROGRAM FILES (X86)\WINDOWS KITS\8.1\INCLUDE\UM\WINBASE.H
C:\PROGRAM FILES (X86)\WINDOWS KITS\8.1\INCLUDE\SHARED\APISETCCONV.H
C:\PROGRAM FILES (X86)\WINDOWS KITS\8.1\INCLUDE\UM\MINWINBASE.H
C:\PROGRAM FILES (X86)\WINDOWS KITS\8.1\INCLUDE\UM\PROCESSENV.H
C:\PROGRAM FILES (X86)\WINDOWS KITS\8.1\INCLUDE\UM\FILEAPI.H
C:\PROGRAM FILES (X86)\WINDOWS KITS\8.1\INCLUDE\UM\DEBUGAPI.H
C:\PROGRAM FILES (X86)\WINDOWS KITS\8.1\INCLUDE\UM\UTILAPISET.H
C:\PROGRAM FILES (X86)\WINDOWS KITS\8.1\INCLUDE\UM\HANDLEAPI.H
C:\PROGRAM FILES (X86)\WINDOWS KITS\8.1\INCLUDE\UM\ERRHANDLINGAPI.H
C:\PROGRAM FILES (X86)\WINDOWS KITS\8.1\INCLUDE\UM\FIBERSAPI.H
C:\PROGRAM FILES (X86)\WINDOWS KITS\8.1\INCLUDE\UM\NAMEDPIPEAPI.H
C:\PROGRAM FILES (X86)\WINDOWS KITS\8.1\INCLUDE\UM\PROFILEAPI.H
C:\PROGRAM FILES (X86)\WINDOWS KITS\8.1\INCLUDE\UM\HEAPAPI.H
C:\PROGRAM FILES (X86)\WINDOWS KITS\8.1\INCLUDE\UM\IOAPISET.H
C:\PROGRAM FILES (X86)\WINDOWS KITS\8.1\INCLUDE\UM\SYNCHAPI.H
C:\PROGRAM FILES (X86)\WINDOWS KITS\8.1\INCLUDE\UM\INTERLOCKEDAPI.H
C:\PROGRAM FILES (X86)\WINDOWS KITS\8.1\INCLUDE\UM\PROCESSTHREADSAPI.H
C:\PROGRAM FILES (X86)\WINDOWS KITS\8.1\INCLUDE\UM\SYSINFOAPI.H
C:\PROGRAM FILES (X86)\WINDOWS KITS\8.1\INCLUDE\UM\MEMORYAPI.H
C:\PROGRAM FILES (X86)\WINDOWS KITS\8.1\INCLUDE\UM\THREADPOOLLEGACYAPISET.H
C:\PROGRAM FILES (X86)\WINDOWS KITS\8.1\INCLUDE\UM\THREADPOOLAPISET.H
C:\PROGRAM FILES (X86)\WINDOWS KITS\8.1\INCLUDE\UM\BEMAPISET.H
C:\PROGRAM FILES (X86)\WINDOWS KITS\8.1\INCLUDE\UM\JOBAPI.H
C:\PROGRAM FILES (X86)\WINDOWS KITS\8.1\INCLUDE\UM\WOW64APISET.H
C:\PROGRAM FILES (X86)\WINDOWS KITS\8.1\INCLUDE\UM\LIBLOADERAPI.H
C:\PROGRAM FILES (X86)\WINDOWS KITS\8.1\INCLUDE\UM\SECURITYBASEAPI.H
C:\PROGRAM FILES (X86)\WINDOWS KITS\8.1\INCLUDE\UM\NAMESPACEAPI.H
C:\PROGRAM FILES (X86)\WINDOWS KITS\8.1\INCLUDE\UM\SYSTEMTOPOLOGYAPI.H
C:\PROGRAM FILES (X86)\WINDOWS KITS\8.1\INCLUDE\UM\PROCESSTOPOLOGYAPI.H
C:\PROGRAM FILES (X86)\WINDOWS KITS\8.1\INCLUDE\UM\SECURITYAPPCONTAINER.H
C:\PROGRAM FILES (X86)\WINDOWS KITS\8.1\INCLUDE\UM\REALTIMEAPISET.H
C:\PROGRAM FILES (X86)\WINDOWS KITS\8.1\INCLUDE\SHARED\WINERROR.H
C:\PROGRAM FILES (X86)\WINDOWS KITS\8.1\INCLUDE\UM\TIMEZONEAPI.H
C:\PROGRAM FILES (X86)\WINDOWS KITS\8.1\INCLUDE\UM\WINGDI.H
C:\PROGRAM FILES (X86)\WINDOWS KITS\8.1\INCLUDE\SHARED\PSHPACK1.H
C:\PROGRAM FILES (X86)\WINDOWS KITS\8.1\INCLUDE\UM\WINUSER.H
C:\PROGRAM FILES (X86)\WINDOWS KITS\8.1\INCLUDE\SHARED\TVOUT.H
C:\PROGRAM FILES (X86)\WINDOWS KITS\8.1\INCLUDE\UM\WINNLS.H
C:\PROGRAM FILES (X86)\WINDOWS KITS\8.1\INCLUDE\UM\DATETIMEAPI.H
C:\PROGRAM FILES (X86)\WINDOWS KITS\8.1\INCLUDE\UM\STRINGAPISET.H
C:\PROGRAM FILES (X86)\WINDOWS KITS\8.1\INCLUDE\UM\WINCON.H
C:\PROGRAM FILES (X86)\WINDOWS KITS\8.1\INCLUDE\UM\CONSOLEAPI.H
C:\PROGRAM FILES (X86)\WINDOWS KITS\8.1\INCLUDE\UM\WINVER.H
C:\PROGRAM FILES (X86)\WINDOWS KITS\8.1\INCLUDE\UM\VERRSRC.H
C:\PROGRAM FILES (X86)\WINDOWS KITS\8.1\INCLUDE\UM\WINREG.H
C:\PROGRAM FILES (X86)\WINDOWS KITS\8.1\INCLUDE\UM\REASON.H
C:\PROGRAM FILES (X86)\WINDOWS KITS\8.1\INCLUDE\UM\WINNETWK.H
C:\PROGRAM FILES (X86)\WINDOWS KITS\8.1\INCLUDE\SHARED\WNNC.H
C:\PROGRAM FILES (X86)\WINDOWS KITS\8.1\INCLUDE\SHARED\CDERR.H
C:\PROGRAM FILES (X86)\WINDOWS KITS\8.1\INCLUDE\UM\DDE.H
C:\PROGRAM FILES (X86)\WINDOWS KITS\8.1\INCLUDE\UM\DDEML.H
C:\PROGRAM FILES (X86)\WINDOWS KITS\8.1\INCLUDE\UM\DLGS.H
C:\PROGRAM FILES (X86)\WINDOWS KITS\8.1\INCLUDE\UM\LZEXPAND.H
C:\PROGRAM FILES (X86)\WINDOWS KITS\8.1\INCLUDE\UM\MMSYSTEM.H
C:\PROGRAM FILES (X86)\WINDOWS KITS\8.1\INCLUDE\UM\MMSYSCOM.H
C:\PROGRAM FILES (X86)\WINDOWS KITS\8.1\INCLUDE\UM\MCIAPI.H
C:\PROGRAM FILES (X86)\WINDOWS KITS\8.1\INCLUDE\UM\MMISCAPI.H
C:\PROGRAM FILES (X86)\WINDOWS KITS\8.1\INCLUDE\UM\MMISCAPI2.H
C:\PROGRAM FILES (X86)\WINDOWS KITS\8.1\INCLUDE\UM\PLAYSOUNDAPI.H
C:\PROGRAM FILES (X86)\WINDOWS KITS\8.1\INCLUDE\UM\MMEAPI.H
C:\PROGRAM FILES (X86)\WINDOWS KITS\8.1\INCLUDE\UM\TIMEAPI.H
C:\PROGRAM FILES (X86)\WINDOWS KITS\8.1\INCLUDE\UM\JOYSTICKAPI.H
C:\PROGRAM FILES (X86)\WINDOWS KITS\8.1\INCLUDE\UM\NB30.H
C:\PROGRAM FILES (X86)\WINDOWS KITS\8.1\INCLUDE\SHARED\RPC.H
C:\PROGRAM FILES (X86)\WINDOWS KITS\8.1\INCLUDE\SHARED\RPCDCE.H
C:\PROGRAM FILES (X86)\WINDOWS KITS\8.1\INCLUDE\SHARED\RPCDCEP.H
C:\PROGRAM FILES (X86)\WINDOWS KITS\8.1\INCLUDE\UM\RPCNSI.H
C:\PROGRAM FILES (X86)\WINDOWS KITS\8.1\INCLUDE\SHARED\RPCNTERR.H
C:\PROGRAM FILES (X86)\WINDOWS KITS\8.1\INCLUDE\SHARED\RPCASYNC.H
C:\PROGRAM FILES (X86)\WINDOWS KITS\8.1\INCLUDE\UM\SHELLAPI.H
C:\PROGRAM FILES (X86)\WINDOWS KITS\8.1\INCLUDE\UM\WINPERF.H
C:\PROGRAM FILES (X86)\WINDOWS KITS\8.1\INCLUDE\UM\WINSOCK.H
C:\PROGRAM FILES (X86)\WINDOWS KITS\8.1\INCLUDE\SHARED\INADDR.H
C:\PROGRAM FILES (X86)\WINDOWS KITS\8.1\INCLUDE\UM\WINCRYPT.H
C:\PROGRAM FILES (X86)\WINDOWS KITS\8.1\INCLUDE\SHARED\BCRYPT.H
C:\PROGRAM FILES (X86)\WINDOWS KITS\8.1\INCLUDE\UM\NCRYPT.H
C:\PROGRAM FILES (X86)\WINDOWS KITS\8.1\INCLUDE\UM\DPAPI.H
C:\PROGRAM FILES (X86)\WINDOWS KITS\8.1\INCLUDE\UM\WINEFS.H
C:\PROGRAM FILES (X86)\WINDOWS KITS\8.1\INCLUDE\UM\WINSCARD.H
C:\PROGRAM FILES (X86)\WINDOWS KITS\8.1\INCLUDE\SHARED\WTYPES.H
C:\PROGRAM FILES (X86)\WINDOWS KITS\8.1\INCLUDE\SHARED\RPCNDR.H
C:\PROGRAM FILES (X86)\WINDOWS KITS\8.1\INCLUDE\UM\RPCNSIP.H
C:\PROGRAM FILES (X86)\WINDOWS KITS\8.1\INCLUDE\SHARED\RPCSAL.H
C:\PROGRAM FILES (X86)\WINDOWS KITS\8.1\INCLUDE\SHARED\WTYPESBASE.H
C:\PROGRAM FILES (X86)\WINDOWS KITS\8.1\INCLUDE\UM\WINIOCTL.H
C:\PROGRAM FILES (X86)\WINDOWS KITS\8.1\INCLUDE\SHARED\WINSMCRD.H
C:\PROGRAM FILES (X86)\WINDOWS KITS\8.1\INCLUDE\UM\WINSPOOL.H
C:\PROGRAM FILES (X86)\WINDOWS KITS\8.1\INCLUDE\UM\PRSHT.H
C:\PROGRAM FILES (X86)\WINDOWS KITS\8.1\INCLUDE\UM\OLE2.H
C:\PROGRAM FILES (X86)\WINDOWS KITS\8.1\INCLUDE\UM\OBJBASE.H
C:\PROGRAM FILES (X86)\WINDOWS KITS\8.1\INCLUDE\UM\COMBASEAPI.H
C:\PROGRAM FILES (X86)\WINDOWS KITS\8.1\INCLUDE\UM\UNKNWNBASE.H
C:\PROGRAM FILES (X86)\WINDOWS KITS\8.1\INCLUDE\UM\OBJIDLBASE.H
C:\PROGRAM FILES (X86)\WINDOWS KITS\8.1\INCLUDE\UM\CGUID.H
C:\PROGRAM FILES (X86)\WINDOWS KITS\8.1\INCLUDE\UM\OBJIDL.H
C:\PROGRAM FILES (X86)\WINDOWS KITS\8.1\INCLUDE\UM\UNKNWN.H
C:\PROGRAM FILES (X86)\WINDOWS KITS\8.1\INCLUDE\UM\URLMON.H
C:\PROGRAM FILES (X86)\WINDOWS KITS\8.1\INCLUDE\UM\OLEIDL.H
C:\PROGRAM FILES (X86)\WINDOWS KITS\8.1\INCLUDE\UM\SERVPROV.H
C:\PROGRAM FILES (X86)\WINDOWS KITS\8.1\INCLUDE\UM\MSXML.H
C:\PROGRAM FILES (X86)\WINDOWS KITS\8.1\INCLUDE\UM\OAIDL.H
C:\PROGRAM FILES (X86)\WINDOWS KITS\8.1\INCLUDE\UM\PROPIDL.H
C:\PROGRAM FILES (X86)\WINDOWS KITS\8.1\INCLUDE\UM\OLEAUTO.H
C:\PROGRAM FILES (X86)\WINDOWS KITS\8.1\INCLUDE\UM\COMMDLG.H
C:\PROGRAM FILES (X86)\WINDOWS KITS\8.1\INCLUDE\SHARED\STRALIGN.H
C:\PROGRAM FILES (X86)\WINDOWS KITS\8.1\INCLUDE\UM\WINSVC.H
C:\PROGRAM FILES (X86)\WINDOWS KITS\8.1\INCLUDE\UM\MCX.H
C:\PROGRAM FILES (X86)\WINDOWS KITS\8.1\INCLUDE\UM\IMM.H
C:\PROGRAM FILES (X86)\WINDOWS KITS\8.1\INCLUDE\UM\IME_CMODES.H
D:\INSTALLED SOFTWARES\VISUAL STUDIO\VC\INCLUDE\STRING
D:\INSTALLED SOFTWARES\VISUAL STUDIO\VC\INCLUDE\ITERATOR
D:\INSTALLED SOFTWARES\VISUAL STUDIO\VC\BIN\MSPDBSRV.EXE
