^C:\USERS\JD\SOURCE\REPOS\TASK 23\TASK 23\PCH.CPP
C:\USERS\JD\SOURCE\REPOS\TASK 23\TASK 23\DEBUG\TASK 23.PCH
C:\USERS\JD\SOURCE\REPOS\TASK 23\TASK 23\DEBUG\VC141.PDB
C:\USERS\JD\SOURCE\REPOS\TASK 23\TASK 23\DEBUG\VC141.IDB
C:\USERS\JD\SOURCE\REPOS\TASK 23\TASK 23\DEBUG\PCH.OBJ
^C:\USERS\JD\SOURCE\REPOS\TASK 23\TASK 23\TASK 23.CPP
C:\USERS\JD\SOURCE\REPOS\TASK 23\TASK 23\DEBUG\VC141.PDB
C:\USERS\JD\SOURCE\REPOS\TASK 23\TASK 23\DEBUG\VC141.IDB
C:\USERS\JD\SOURCE\REPOS\TASK 23\TASK 23\DEBUG\TASK 23.OBJ
