^C:\USERS\JD\DOCUMENTS\VISUAL STUDIO 2013\PROJECTS\GRIDWORLD\GRIDWORLD\STDAFX.CPP
/c /ZI /nologo /W3 /WX- /sdl /Od /Oy- /D WIN32 /D _DEBUG /D _CONSOLE /D _LIB /D _UNICODE /D UNICODE /Gm /EHsc /RTC1 /MDd /GS /fp:precise /Zc:wchar_t /Zc:forScope /Yc"stdafx.h" /Fp"DEBUG\GRIDWORLD.PCH" /Fo"DEBUG\\" /Fd"DEBUG\VC120.PDB" /Gd /TP /analyze- C:\USERS\JD\DOCUMENTS\VISUAL STUDIO 2013\PROJECTS\GRIDWORLD\GRIDWORLD\STDAFX.CPP
^C:\USERS\JD\DOCUMENTS\VISUAL STUDIO 2013\PROJECTS\GRIDWORLD\GRIDWORLD\GRIDWORLD.CPP
/c /ZI /nologo /W3 /WX- /sdl /Od /Oy- /D WIN32 /D _DEBUG /D _CONSOLE /D _LIB /D _UNICODE /D UNICODE /Gm /EHsc /RTC1 /MDd /GS /fp:precise /Zc:wchar_t /Zc:forScope /Yu"stdafx.h" /Fp"DEBUG\GRIDWORLD.PCH" /Fo"DEBUG\\" /Fd"DEBUG\VC120.PDB" /Gd /TP /analyze- C:\USERS\JD\DOCUMENTS\VISUAL STUDIO 2013\PROJECTS\GRIDWORLD\GRIDWORLD\GRIDWORLD.CPP
^F:\GAMES PROGRAMING REPO\COS30031-102043272\03 - SPIKE - GRIDWORLD\GRIDWORLD\STDAFX.CPP
/c /ZI /nologo /W3 /WX- /sdl /Od /Oy- /D WIN32 /D _DEBUG /D _CONSOLE /D _LIB /D _UNICODE /D UNICODE /Gm /EHsc /RTC1 /MDd /GS /fp:precise /Zc:wchar_t /Zc:forScope /Yc"stdafx.h" /Fp"DEBUG\GRIDWORLD.PCH" /Fo"DEBUG\\" /Fd"DEBUG\VC120.PDB" /Gd /TP /analyze- F:\GAMES PROGRAMING REPO\COS30031-102043272\03 - SPIKE - GRIDWORLD\GRIDWORLD\STDAFX.CPP
^F:\GAMES PROGRAMING REPO\COS30031-102043272\03 - SPIKE - GRIDWORLD\GRIDWORLD\GRIDWORLD.CPP
/c /ZI /nologo /W3 /WX- /sdl /Od /Oy- /D WIN32 /D _DEBUG /D _CONSOLE /D _LIB /D _UNICODE /D UNICODE /Gm /EHsc /RTC1 /MDd /GS /fp:precise /Zc:wchar_t /Zc:forScope /Yu"stdafx.h" /Fp"DEBUG\GRIDWORLD.PCH" /Fo"DEBUG\\" /Fd"DEBUG\VC120.PDB" /Gd /TP /analyze- F:\GAMES PROGRAMING REPO\COS30031-102043272\03 - SPIKE - GRIDWORLD\GRIDWORLD\GRIDWORLD.CPP
