^C:\USERS\JD\DOCUMENTS\VISUAL STUDIO 2013\PROJECTS\GRIDWORLD\GRIDWORLD\STDAFX.CPP
C:\USERS\JD\DOCUMENTS\VISUAL STUDIO 2013\PROJECTS\GRIDWORLD\GRIDWORLD\DEBUG\GRIDWORLD.PCH
C:\USERS\JD\DOCUMENTS\VISUAL STUDIO 2013\PROJECTS\GRIDWORLD\GRIDWORLD\DEBUG\VC120.PDB
C:\USERS\JD\DOCUMENTS\VISUAL STUDIO 2013\PROJECTS\GRIDWORLD\GRIDWORLD\DEBUG\VC120.IDB
C:\USERS\JD\DOCUMENTS\VISUAL STUDIO 2013\PROJECTS\GRIDWORLD\GRIDWORLD\DEBUG\STDAFX.OBJ
^C:\USERS\JD\DOCUMENTS\VISUAL STUDIO 2013\PROJECTS\GRIDWORLD\GRIDWORLD\GRIDWORLD.CPP
C:\USERS\JD\DOCUMENTS\VISUAL STUDIO 2013\PROJECTS\GRIDWORLD\GRIDWORLD\DEBUG\VC120.PDB
C:\USERS\JD\DOCUMENTS\VISUAL STUDIO 2013\PROJECTS\GRIDWORLD\GRIDWORLD\DEBUG\VC120.IDB
C:\USERS\JD\DOCUMENTS\VISUAL STUDIO 2013\PROJECTS\GRIDWORLD\GRIDWORLD\DEBUG\GRIDWORLD.OBJ
^F:\GAMES PROGRAMING REPO\COS30031-102043272\03 - SPIKE - GRIDWORLD\GRIDWORLD\STDAFX.CPP
F:\GAMES PROGRAMING REPO\COS30031-102043272\03 - SPIKE - GRIDWORLD\GRIDWORLD\DEBUG\GRIDWORLD.PCH
F:\GAMES PROGRAMING REPO\COS30031-102043272\03 - SPIKE - GRIDWORLD\GRIDWORLD\DEBUG\VC120.PDB
F:\GAMES PROGRAMING REPO\COS30031-102043272\03 - SPIKE - GRIDWORLD\GRIDWORLD\DEBUG\VC120.IDB
F:\GAMES PROGRAMING REPO\COS30031-102043272\03 - SPIKE - GRIDWORLD\GRIDWORLD\DEBUG\STDAFX.OBJ
^F:\GAMES PROGRAMING REPO\COS30031-102043272\03 - SPIKE - GRIDWORLD\GRIDWORLD\GRIDWORLD.CPP
F:\GAMES PROGRAMING REPO\COS30031-102043272\03 - SPIKE - GRIDWORLD\GRIDWORLD\DEBUG\VC120.PDB
F:\GAMES PROGRAMING REPO\COS30031-102043272\03 - SPIKE - GRIDWORLD\GRIDWORLD\DEBUG\VC120.IDB
F:\GAMES PROGRAMING REPO\COS30031-102043272\03 - SPIKE - GRIDWORLD\GRIDWORLD\DEBUG\GRIDWORLD.OBJ
