^C:\USERS\JD\DOCUMENTS\VISUAL STUDIO 2013\PROJECTS\GRIDWORLD\GRIDWORLD\DEBUG\GRIDWORLD.OBJ|C:\USERS\JD\DOCUMENTS\VISUAL STUDIO 2013\PROJECTS\GRIDWORLD\GRIDWORLD\DEBUG\STDAFX.OBJ
C:\PROGRAM FILES (X86)\WINDOWS KITS\8.1\LIB\WINV6.3\UM\X86\KERNEL32.LIB
C:\PROGRAM FILES (X86)\WINDOWS KITS\8.1\LIB\WINV6.3\UM\X86\USER32.LIB
C:\PROGRAM FILES (X86)\WINDOWS KITS\8.1\LIB\WINV6.3\UM\X86\GDI32.LIB
C:\PROGRAM FILES (X86)\WINDOWS KITS\8.1\LIB\WINV6.3\UM\X86\WINSPOOL.LIB
C:\PROGRAM FILES (X86)\WINDOWS KITS\8.1\LIB\WINV6.3\UM\X86\COMDLG32.LIB
C:\PROGRAM FILES (X86)\WINDOWS KITS\8.1\LIB\WINV6.3\UM\X86\ADVAPI32.LIB
C:\PROGRAM FILES (X86)\WINDOWS KITS\8.1\LIB\WINV6.3\UM\X86\SHELL32.LIB
C:\PROGRAM FILES (X86)\WINDOWS KITS\8.1\LIB\WINV6.3\UM\X86\OLE32.LIB
C:\PROGRAM FILES (X86)\WINDOWS KITS\8.1\LIB\WINV6.3\UM\X86\OLEAUT32.LIB
C:\PROGRAM FILES (X86)\WINDOWS KITS\8.1\LIB\WINV6.3\UM\X86\UUID.LIB
C:\PROGRAM FILES (X86)\WINDOWS KITS\8.1\LIB\WINV6.3\UM\X86\ODBC32.LIB
C:\PROGRAM FILES (X86)\WINDOWS KITS\8.1\LIB\WINV6.3\UM\X86\ODBCCP32.LIB
C:\USERS\JD\DOCUMENTS\VISUAL STUDIO 2013\PROJECTS\GRIDWORLD\GRIDWORLD\DEBUG\GRIDWORLD.OBJ
C:\USERS\JD\DOCUMENTS\VISUAL STUDIO 2013\PROJECTS\GRIDWORLD\GRIDWORLD\DEBUG\STDAFX.OBJ
C:\WINDOWS\SYSTEM32\TZRES.DLL
C:\WINDOWS\GLOBALIZATION\SORTING\SORTDEFAULT.NLS
D:\INSTALLED SOFTWARES\VISUAL STUDIO\VC\LIB\MSVCPRTD.LIB
D:\INSTALLED SOFTWARES\VISUAL STUDIO\VC\LIB\MSVCRTD.LIB
D:\INSTALLED SOFTWARES\VISUAL STUDIO\VC\LIB\OLDNAMES.LIB
^F:\GAMES PROGRAMING REPO\COS30031-102043272\03 - SPIKE - GRIDWORLD\GRIDWORLD\DEBUG\GRIDWORLD.OBJ|F:\GAMES PROGRAMING REPO\COS30031-102043272\03 - SPIKE - GRIDWORLD\GRIDWORLD\DEBUG\STDAFX.OBJ
C:\PROGRAM FILES (X86)\WINDOWS KITS\8.1\LIB\WINV6.3\UM\X86\KERNEL32.LIB
C:\PROGRAM FILES (X86)\WINDOWS KITS\8.1\LIB\WINV6.3\UM\X86\USER32.LIB
C:\PROGRAM FILES (X86)\WINDOWS KITS\8.1\LIB\WINV6.3\UM\X86\GDI32.LIB
C:\PROGRAM FILES (X86)\WINDOWS KITS\8.1\LIB\WINV6.3\UM\X86\WINSPOOL.LIB
C:\PROGRAM FILES (X86)\WINDOWS KITS\8.1\LIB\WINV6.3\UM\X86\COMDLG32.LIB
C:\PROGRAM FILES (X86)\WINDOWS KITS\8.1\LIB\WINV6.3\UM\X86\ADVAPI32.LIB
C:\PROGRAM FILES (X86)\WINDOWS KITS\8.1\LIB\WINV6.3\UM\X86\SHELL32.LIB
C:\PROGRAM FILES (X86)\WINDOWS KITS\8.1\LIB\WINV6.3\UM\X86\OLE32.LIB
C:\PROGRAM FILES (X86)\WINDOWS KITS\8.1\LIB\WINV6.3\UM\X86\OLEAUT32.LIB
C:\PROGRAM FILES (X86)\WINDOWS KITS\8.1\LIB\WINV6.3\UM\X86\UUID.LIB
C:\PROGRAM FILES (X86)\WINDOWS KITS\8.1\LIB\WINV6.3\UM\X86\ODBC32.LIB
C:\PROGRAM FILES (X86)\WINDOWS KITS\8.1\LIB\WINV6.3\UM\X86\ODBCCP32.LIB
F:\GAMES PROGRAMING REPO\COS30031-102043272\03 - SPIKE - GRIDWORLD\GRIDWORLD\DEBUG\GRIDWORLD.OBJ
F:\GAMES PROGRAMING REPO\COS30031-102043272\03 - SPIKE - GRIDWORLD\GRIDWORLD\DEBUG\STDAFX.OBJ
C:\WINDOWS\SYSTEM32\TZRES.DLL
C:\WINDOWS\GLOBALIZATION\SORTING\SORTDEFAULT.NLS
D:\INSTALLED SOFTWARES\VISUAL STUDIO\VC\LIB\MSVCPRTD.LIB
D:\INSTALLED SOFTWARES\VISUAL STUDIO\VC\LIB\MSVCRTD.LIB
D:\INSTALLED SOFTWARES\VISUAL STUDIO\VC\LIB\OLDNAMES.LIB
C:\PROGRAM FILES (X86)\WINDOWS KITS\8.1\BIN\X86\RC.EXE
D:\INSTALLED SOFTWARES\VISUAL STUDIO\VC\BIN\CVTRES.EXE
