^C:\USERS\JD\SOURCE\REPOS\TASK24FINAL\TASK24FINAL\DEBUG\PCH.OBJ|C:\USERS\JD\SOURCE\REPOS\TASK24FINAL\TASK24FINAL\DEBUG\TASK24FINAL.OBJ
C:\USERS\JD\SOURCE\REPOS\TASK24FINAL\DEBUG\TASK24FINAL.EXE
C:\USERS\JD\SOURCE\REPOS\TASK24FINAL\DEBUG\TASK24FINAL.ILK
C:\USERS\JD\SOURCE\REPOS\TASK24FINAL\DEBUG\TASK24FINAL.PDB
