^C:\USERS\JD\DOCUMENTS\VISUAL STUDIO 2013\PROJECTS\TASK 09 FINAL\TASK 09 FINAL\DEBUG\STDAFX.OBJ|C:\USERS\JD\DOCUMENTS\VISUAL STUDIO 2013\PROJECTS\TASK 09 FINAL\TASK 09 FINAL\DEBUG\TASK 09 FINAL.OBJ
/OUT:"C:\USERS\JD\DOCUMENTS\VISUAL STUDIO 2013\PROJECTS\TASK 09 FINAL\DEBUG\TASK 09 FINAL.EXE" /INCREMENTAL /NOLOGO kernel32.lib user32.lib gdi32.lib winspool.lib comdlg32.lib advapi32.lib shell32.lib ole32.lib oleaut32.lib uuid.lib odbc32.lib odbccp32.lib /MANIFEST /MANIFESTUAC:"level='asInvoker' uiAccess='false'" /manifest:embed /DEBUG /PDB:"C:\USERS\JD\DOCUMENTS\VISUAL STUDIO 2013\PROJECTS\TASK 09 FINAL\DEBUG\TASK 09 FINAL.PDB" /SUBSYSTEM:CONSOLE /TLBID:1 /DYNAMICBASE /NXCOMPAT /IMPLIB:"C:\USERS\JD\DOCUMENTS\VISUAL STUDIO 2013\PROJECTS\TASK 09 FINAL\DEBUG\TASK 09 FINAL.LIB" /MACHINE:X86 DEBUG\STDAFX.OBJ"DEBUG\TASK 09 FINAL.OBJ"
^F:\GAMES PROGRAMING REPO\COS30031-102043272\09 - SPIKE - GAME STATE MANAGEMENT\TASK 09 FINAL\TASK 09 FINAL\DEBUG\STDAFX.OBJ|F:\GAMES PROGRAMING REPO\COS30031-102043272\09 - SPIKE - GAME STATE MANAGEMENT\TASK 09 FINAL\TASK 09 FINAL\DEBUG\TASK 09 FINAL.OBJ
/OUT:"F:\GAMES PROGRAMING REPO\COS30031-102043272\09 - SPIKE - GAME STATE MANAGEMENT\TASK 09 FINAL\DEBUG\TASK 09 FINAL.EXE" /INCREMENTAL /NOLOGO kernel32.lib user32.lib gdi32.lib winspool.lib comdlg32.lib advapi32.lib shell32.lib ole32.lib oleaut32.lib uuid.lib odbc32.lib odbccp32.lib /MANIFEST /MANIFESTUAC:"level='asInvoker' uiAccess='false'" /manifest:embed /DEBUG /PDB:"F:\GAMES PROGRAMING REPO\COS30031-102043272\09 - SPIKE - GAME STATE MANAGEMENT\TASK 09 FINAL\DEBUG\TASK 09 FINAL.PDB" /SUBSYSTEM:CONSOLE /TLBID:1 /DYNAMICBASE /NXCOMPAT /IMPLIB:"F:\GAMES PROGRAMING REPO\COS30031-102043272\09 - SPIKE - GAME STATE MANAGEMENT\TASK 09 FINAL\DEBUG\TASK 09 FINAL.LIB" /MACHINE:X86 DEBUG\STDAFX.OBJ"DEBUG\TASK 09 FINAL.OBJ"
